<?xml version="1.0" encoding="UTF-8"?>
<session version="1.0">
<refactoring comment="Move element &apos;BugStyleOGL2D.java&apos; to &apos;StupidModel/src/stupidmodel.obsever&apos;&#x0A;- Original project: &apos;StupidModel&apos;&#x0A;- Destination element: &apos;StupidModel/src/stupidmodel.obsever&apos;&#x0A;- Original element: &apos;BugStyleOGL2D.java&apos;&#x0A;- Update references to refactored element" description="Move file" destination="/src&lt;stupidmodel.obsever" element1="BugStyleOGL2D.java" files="1" flags="589830" folders="0" id="org.eclipse.jdt.ui.move" policy="org.eclipse.jdt.ui.moveResources" qualified="false" references="true" stamp="1422153108203" units="0" version="1.0"/>
</session>